…
## Mean total number of steps per day

### 1. Calculate the total number of steps taken per day
The total number of steps taken per day was calculated by summing the observations in each day (excluding NA values).

```r
metrics <- df %>%
  group_by(date) %>%
  summarize(no.obs = n(), daily.steps = sum(steps, na.rm = TRUE)) %>%      
  print
```

```
## # A tibble: 61 x 3
##    date       no.obs daily.steps
##    <date>      <int>       <int>
##  1 2012-10-01    288           0
##  2 2012-10-02    288         126
##  3 2012-10-03    288       11352
##  4 2012-10-04    288       12116
##  5 2012-10-05    288       13294
##  6 2012-10-06    288       15420
##  7 2012-10-07    288       11015
##  8 2012-10-08    288           0
##  9 2012-10-09    288       12811
## 10 2012-10-10    288        9900
## # ... with 51 more rows
```
…
